{
    "name": "Player",
    "maps": [
        {
            "name": "Player",
            "id": "c62ee5e5-7706-403b-b665-4ac027b47a93",
            "actions": [
                {
                    "name": "Speed",
                    "type": "Button",
                    "id": "46aa4cfa-73c5-42d5-b375-974c53f5646f",
                    "expectedControlType": "Button",
                    "processors": "",
                    "interactions": "",
                    "initialStateCheck": false
                }
            ],
            "bindings": [
                {
                    "name": "",
                    "id": "0149ea7f-cccf-4a4f-b611-0060c5b0ea7c",
                    "path": "<Keyboard>/space",
                    "interactions": "",
                    "processors": "",
                    "groups": "",
                    "action": "Speed",
                    "isComposite": false,
                    "isPartOfComposite": false
                }
            ]
        }
    ],
    "controlSchemes": []
}